TA,age,ethnicity,beta_weights
1,0,Maori,1
1,1,Maori,1
1,2,Maori,1
1,3,Maori,1
1,0,MaoriPacific,1
1,1,MaoriPacific,1
1,2,MaoriPacific,1
1,3,MaoriPacific,1
1,0,Other,1
1,1,Other,1
1,2,Other,1
1,3,Other,1
1,0,Pacific,1
1,1,Pacific,1
1,2,Pacific,1
1,3,Pacific,1
2,0,Maori,1
2,1,Maori,1
2,2,Maori,1
2,3,Maori,1
2,0,MaoriPacific,1
2,1,MaoriPacific,1
2,2,MaoriPacific,1
2,3,MaoriPacific,1
2,0,Other,1
2,1,Other,1
2,2,Other,1
2,3,Other,1
2,0,Pacific,1
2,1,Pacific,1
2,2,Pacific,1
2,3,Pacific,1
3,0,Maori,1
3,1,Maori,1
3,2,Maori,1
3,3,Maori,1
3,0,MaoriPacific,1
3,1,MaoriPacific,1
3,2,MaoriPacific,1
3,3,MaoriPacific,1
3,0,Other,1
3,1,Other,1
3,2,Other,1
3,3,Other,1
3,0,Pacific,1
3,1,Pacific,1
3,2,Pacific,1
3,3,Pacific,1
11,0,Maori,1
11,1,Maori,1
11,2,Maori,1
11,3,Maori,1
11,0,MaoriPacific,1
11,1,MaoriPacific,1
11,2,MaoriPacific,1
11,3,MaoriPacific,1
11,0,Other,1
11,1,Other,1
11,2,Other,1
11,3,Other,1
11,0,Pacific,1
11,1,Pacific,1
11,2,Pacific,1
11,3,Pacific,1
12,0,Maori,1
12,1,Maori,1
12,2,Maori,1
12,3,Maori,1
12,0,MaoriPacific,1
12,1,MaoriPacific,1
12,2,MaoriPacific,1
12,3,MaoriPacific,1
12,0,Other,1
12,1,Other,1
12,2,Other,1
12,3,Other,1
12,0,Pacific,1
12,1,Pacific,1
12,2,Pacific,1
12,3,Pacific,1
13,0,Maori,1
13,1,Maori,1
13,2,Maori,1
13,3,Maori,1
13,0,MaoriPacific,1
13,1,MaoriPacific,1
13,2,MaoriPacific,1
13,3,MaoriPacific,1
13,0,Other,1
13,1,Other,1
13,2,Other,1
13,3,Other,1
13,0,Pacific,1
13,1,Pacific,1
13,2,Pacific,1
13,3,Pacific,1
15,0,Maori,1
15,1,Maori,1
15,2,Maori,1
15,3,Maori,1
15,0,MaoriPacific,1
15,1,MaoriPacific,1
15,2,MaoriPacific,1
15,3,MaoriPacific,1
15,0,Other,1
15,1,Other,1
15,2,Other,1
15,3,Other,1
15,0,Pacific,1
15,1,Pacific,1
15,2,Pacific,1
15,3,Pacific,1
16,0,Maori,1
16,1,Maori,1
16,2,Maori,1
16,3,Maori,1
16,0,MaoriPacific,1
16,1,MaoriPacific,1
16,2,MaoriPacific,1
16,3,MaoriPacific,1
16,0,Other,1
16,1,Other,1
16,2,Other,1
16,3,Other,1
16,0,Pacific,1
16,1,Pacific,1
16,2,Pacific,1
16,3,Pacific,1
17,0,Maori,1
17,1,Maori,1
17,2,Maori,1
17,3,Maori,1
17,0,MaoriPacific,1
17,1,MaoriPacific,1
17,2,MaoriPacific,1
17,3,MaoriPacific,1
17,0,Other,1
17,1,Other,1
17,2,Other,1
17,3,Other,1
17,0,Pacific,1
17,1,Pacific,1
17,2,Pacific,1
17,3,Pacific,1
18,0,Maori,1
18,1,Maori,1
18,2,Maori,1
18,3,Maori,1
18,0,MaoriPacific,1
18,1,MaoriPacific,1
18,2,MaoriPacific,1
18,3,MaoriPacific,1
18,0,Other,1
18,1,Other,1
18,2,Other,1
18,3,Other,1
18,0,Pacific,1
18,1,Pacific,1
18,2,Pacific,1
18,3,Pacific,1
19,0,Maori,1
19,1,Maori,1
19,2,Maori,1
19,3,Maori,1
19,0,MaoriPacific,1
19,1,MaoriPacific,1
19,2,MaoriPacific,1
19,3,MaoriPacific,1
19,0,Other,1
19,1,Other,1
19,2,Other,1
19,3,Other,1
19,0,Pacific,1
19,1,Pacific,1
19,2,Pacific,1
19,3,Pacific,1
20,0,Maori,1
20,1,Maori,1
20,2,Maori,1
20,3,Maori,1
20,0,MaoriPacific,1
20,1,MaoriPacific,1
20,2,MaoriPacific,1
20,3,MaoriPacific,1
20,0,Other,1
20,1,Other,1
20,2,Other,1
20,3,Other,1
20,0,Pacific,1
20,1,Pacific,1
20,2,Pacific,1
20,3,Pacific,1
21,0,Maori,1
21,1,Maori,1
21,2,Maori,1
21,3,Maori,1
21,0,MaoriPacific,1
21,1,MaoriPacific,1
21,2,MaoriPacific,1
21,3,MaoriPacific,1
21,0,Other,1
21,1,Other,1
21,2,Other,1
21,3,Other,1
21,0,Pacific,1
21,1,Pacific,1
21,2,Pacific,1
21,3,Pacific,1
22,0,Maori,1
22,1,Maori,1
22,2,Maori,1
22,3,Maori,1
22,0,MaoriPacific,1
22,1,MaoriPacific,1
22,2,MaoriPacific,1
22,3,MaoriPacific,1
22,0,Other,1
22,1,Other,1
22,2,Other,1
22,3,Other,1
22,0,Pacific,1
22,1,Pacific,1
22,2,Pacific,1
22,3,Pacific,1
23,0,Maori,1
23,1,Maori,1
23,2,Maori,1
23,3,Maori,1
23,0,MaoriPacific,1
23,1,MaoriPacific,1
23,2,MaoriPacific,1
23,3,MaoriPacific,1
23,0,Other,1
23,1,Other,1
23,2,Other,1
23,3,Other,1
23,0,Pacific,1
23,1,Pacific,1
23,2,Pacific,1
23,3,Pacific,1
24,0,Maori,1
24,1,Maori,1
24,2,Maori,1
24,3,Maori,1
24,0,MaoriPacific,1
24,1,MaoriPacific,1
24,2,MaoriPacific,1
24,3,MaoriPacific,1
24,0,Other,1
24,1,Other,1
24,2,Other,1
24,3,Other,1
24,0,Pacific,1
24,1,Pacific,1
24,2,Pacific,1
24,3,Pacific,1
25,0,Maori,1
25,1,Maori,1
25,2,Maori,1
25,3,Maori,1
25,0,MaoriPacific,1
25,1,MaoriPacific,1
25,2,MaoriPacific,1
25,3,MaoriPacific,1
25,0,Other,1
25,1,Other,1
25,2,Other,1
25,3,Other,1
25,0,Pacific,1
25,1,Pacific,1
25,2,Pacific,1
25,3,Pacific,1
26,0,Maori,1
26,1,Maori,1
26,2,Maori,1
26,3,Maori,1
26,0,MaoriPacific,1
26,1,MaoriPacific,1
26,2,MaoriPacific,1
26,3,MaoriPacific,1
26,0,Other,1
26,1,Other,1
26,2,Other,1
26,3,Other,1
26,0,Pacific,1
26,1,Pacific,1
26,2,Pacific,1
26,3,Pacific,1
27,0,Maori,1
27,1,Maori,1
27,2,Maori,1
27,3,Maori,1
27,0,MaoriPacific,1
27,1,MaoriPacific,1
27,2,MaoriPacific,1
27,3,MaoriPacific,1
27,0,Other,1
27,1,Other,1
27,2,Other,1
27,3,Other,1
27,0,Pacific,1
27,1,Pacific,1
27,2,Pacific,1
27,3,Pacific,1
28,0,Maori,1
28,1,Maori,1
28,2,Maori,1
28,3,Maori,1
28,0,MaoriPacific,1
28,1,MaoriPacific,1
28,2,MaoriPacific,1
28,3,MaoriPacific,1
28,0,Other,1
28,1,Other,1
28,2,Other,1
28,3,Other,1
28,0,Pacific,1
28,1,Pacific,1
28,2,Pacific,1
28,3,Pacific,1
29,0,Maori,1
29,1,Maori,1
29,2,Maori,1
29,3,Maori,1
29,0,MaoriPacific,1
29,1,MaoriPacific,1
29,2,MaoriPacific,1
29,3,MaoriPacific,1
29,0,Other,1
29,1,Other,1
29,2,Other,1
29,3,Other,1
29,0,Pacific,1
29,1,Pacific,1
29,2,Pacific,1
29,3,Pacific,1
30,0,Maori,1
30,1,Maori,1
30,2,Maori,1
30,3,Maori,1
30,0,MaoriPacific,1
30,1,MaoriPacific,1
30,2,MaoriPacific,1
30,3,MaoriPacific,1
30,0,Other,1
30,1,Other,1
30,2,Other,1
30,3,Other,1
30,0,Pacific,1
30,1,Pacific,1
30,2,Pacific,1
30,3,Pacific,1
31,0,Maori,1
31,1,Maori,1
31,2,Maori,1
31,3,Maori,1
31,0,MaoriPacific,1
31,1,MaoriPacific,1
31,2,MaoriPacific,1
31,3,MaoriPacific,1
31,0,Other,1
31,1,Other,1
31,2,Other,1
31,3,Other,1
31,0,Pacific,1
31,1,Pacific,1
31,2,Pacific,1
31,3,Pacific,1
32,0,Maori,1
32,1,Maori,1
32,2,Maori,1
32,3,Maori,1
32,0,MaoriPacific,1
32,1,MaoriPacific,1
32,2,MaoriPacific,1
32,3,MaoriPacific,1
32,0,Other,1
32,1,Other,1
32,2,Other,1
32,3,Other,1
32,0,Pacific,1
32,1,Pacific,1
32,2,Pacific,1
32,3,Pacific,1
33,0,Maori,1
33,1,Maori,1
33,2,Maori,1
33,3,Maori,1
33,0,MaoriPacific,1
33,1,MaoriPacific,1
33,2,MaoriPacific,1
33,3,MaoriPacific,1
33,0,Other,1
33,1,Other,1
33,2,Other,1
33,3,Other,1
33,0,Pacific,1
33,1,Pacific,1
33,2,Pacific,1
33,3,Pacific,1
34,0,Maori,1
34,1,Maori,1
34,2,Maori,1
34,3,Maori,1
34,0,MaoriPacific,1
34,1,MaoriPacific,1
34,2,MaoriPacific,1
34,3,MaoriPacific,1
34,0,Other,1
34,1,Other,1
34,2,Other,1
34,3,Other,1
34,0,Pacific,1
34,1,Pacific,1
34,2,Pacific,1
34,3,Pacific,1
35,0,Maori,1
35,1,Maori,1
35,2,Maori,1
35,3,Maori,1
35,0,MaoriPacific,1
35,1,MaoriPacific,1
35,2,MaoriPacific,1
35,3,MaoriPacific,1
35,0,Other,1
35,1,Other,1
35,2,Other,1
35,3,Other,1
35,0,Pacific,1
35,1,Pacific,1
35,2,Pacific,1
35,3,Pacific,1
36,0,Maori,1
36,1,Maori,1
36,2,Maori,1
36,3,Maori,1
36,0,MaoriPacific,1
36,1,MaoriPacific,1
36,2,MaoriPacific,1
36,3,MaoriPacific,1
36,0,Other,1
36,1,Other,1
36,2,Other,1
36,3,Other,1
36,0,Pacific,1
36,1,Pacific,1
36,2,Pacific,1
36,3,Pacific,1
37,0,Maori,1
37,1,Maori,1
37,2,Maori,1
37,3,Maori,1
37,0,MaoriPacific,1
37,1,MaoriPacific,1
37,2,MaoriPacific,1
37,3,MaoriPacific,1
37,0,Other,1
37,1,Other,1
37,2,Other,1
37,3,Other,1
37,0,Pacific,1
37,1,Pacific,1
37,2,Pacific,1
37,3,Pacific,1
38,0,Maori,1
38,1,Maori,1
38,2,Maori,1
38,3,Maori,1
38,0,MaoriPacific,1
38,1,MaoriPacific,1
38,2,MaoriPacific,1
38,3,MaoriPacific,1
38,0,Other,1
38,1,Other,1
38,2,Other,1
38,3,Other,1
38,0,Pacific,1
38,1,Pacific,1
38,2,Pacific,1
38,3,Pacific,1
39,0,Maori,1
39,1,Maori,1
39,2,Maori,1
39,3,Maori,1
39,0,MaoriPacific,1
39,1,MaoriPacific,1
39,2,MaoriPacific,1
39,3,MaoriPacific,1
39,0,Other,1
39,1,Other,1
39,2,Other,1
39,3,Other,1
39,0,Pacific,1
39,1,Pacific,1
39,2,Pacific,1
39,3,Pacific,1
40,0,Maori,1
40,1,Maori,1
40,2,Maori,1
40,3,Maori,1
40,0,MaoriPacific,1
40,1,MaoriPacific,1
40,2,MaoriPacific,1
40,3,MaoriPacific,1
40,0,Other,1
40,1,Other,1
40,2,Other,1
40,3,Other,1
40,0,Pacific,1
40,1,Pacific,1
40,2,Pacific,1
40,3,Pacific,1
41,0,Maori,1
41,1,Maori,1
41,2,Maori,1
41,3,Maori,1
41,0,MaoriPacific,1
41,1,MaoriPacific,1
41,2,MaoriPacific,1
41,3,MaoriPacific,1
41,0,Other,1
41,1,Other,1
41,2,Other,1
41,3,Other,1
41,0,Pacific,1
41,1,Pacific,1
41,2,Pacific,1
41,3,Pacific,1
42,0,Maori,1
42,1,Maori,1
42,2,Maori,1
42,3,Maori,1
42,0,MaoriPacific,1
42,1,MaoriPacific,1
42,2,MaoriPacific,1
42,3,MaoriPacific,1
42,0,Other,1
42,1,Other,1
42,2,Other,1
42,3,Other,1
42,0,Pacific,1
42,1,Pacific,1
42,2,Pacific,1
42,3,Pacific,1
43,0,Maori,1
43,1,Maori,1
43,2,Maori,1
43,3,Maori,1
43,0,MaoriPacific,1
43,1,MaoriPacific,1
43,2,MaoriPacific,1
43,3,MaoriPacific,1
43,0,Other,1
43,1,Other,1
43,2,Other,1
43,3,Other,1
43,0,Pacific,1
43,1,Pacific,1
43,2,Pacific,1
43,3,Pacific,1
44,0,Maori,1
44,1,Maori,1
44,2,Maori,1
44,3,Maori,1
44,0,MaoriPacific,1
44,1,MaoriPacific,1
44,2,MaoriPacific,1
44,3,MaoriPacific,1
44,0,Other,1
44,1,Other,1
44,2,Other,1
44,3,Other,1
44,0,Pacific,1
44,1,Pacific,1
44,2,Pacific,1
44,3,Pacific,1
45,0,Maori,1
45,1,Maori,1
45,2,Maori,1
45,3,Maori,1
45,0,MaoriPacific,1
45,1,MaoriPacific,1
45,2,MaoriPacific,1
45,3,MaoriPacific,1
45,0,Other,1
45,1,Other,1
45,2,Other,1
45,3,Other,1
45,0,Pacific,1
45,1,Pacific,1
45,2,Pacific,1
45,3,Pacific,1
46,0,Maori,1
46,1,Maori,1
46,2,Maori,1
46,3,Maori,1
46,0,MaoriPacific,1
46,1,MaoriPacific,1
46,2,MaoriPacific,1
46,3,MaoriPacific,1
46,0,Other,1
46,1,Other,1
46,2,Other,1
46,3,Other,1
46,0,Pacific,1
46,1,Pacific,1
46,2,Pacific,1
46,3,Pacific,1
47,0,Maori,1
47,1,Maori,1
47,2,Maori,1
47,3,Maori,1
47,0,MaoriPacific,1
47,1,MaoriPacific,1
47,2,MaoriPacific,1
47,3,MaoriPacific,1
47,0,Other,1
47,1,Other,1
47,2,Other,1
47,3,Other,1
47,0,Pacific,1
47,1,Pacific,1
47,2,Pacific,1
47,3,Pacific,1
48,0,Maori,1
48,1,Maori,1
48,2,Maori,1
48,3,Maori,1
48,0,MaoriPacific,1
48,1,MaoriPacific,1
48,2,MaoriPacific,1
48,3,MaoriPacific,1
48,0,Other,1
48,1,Other,1
48,2,Other,1
48,3,Other,1
48,0,Pacific,1
48,1,Pacific,1
48,2,Pacific,1
48,3,Pacific,1
49,0,Maori,1
49,1,Maori,1
49,2,Maori,1
49,3,Maori,1
49,0,MaoriPacific,1
49,1,MaoriPacific,1
49,2,MaoriPacific,1
49,3,MaoriPacific,1
49,0,Other,1
49,1,Other,1
49,2,Other,1
49,3,Other,1
49,0,Pacific,1
49,1,Pacific,1
49,2,Pacific,1
49,3,Pacific,1
50,0,Maori,1
50,1,Maori,1
50,2,Maori,1
50,3,Maori,1
50,0,MaoriPacific,1
50,1,MaoriPacific,1
50,2,MaoriPacific,1
50,3,MaoriPacific,1
50,0,Other,1
50,1,Other,1
50,2,Other,1
50,3,Other,1
50,0,Pacific,1
50,1,Pacific,1
50,2,Pacific,1
50,3,Pacific,1
51,0,Maori,1
51,1,Maori,1
51,2,Maori,1
51,3,Maori,1
51,0,MaoriPacific,1
51,1,MaoriPacific,1
51,2,MaoriPacific,1
51,3,MaoriPacific,1
51,0,Other,1
51,1,Other,1
51,2,Other,1
51,3,Other,1
51,0,Pacific,1
51,1,Pacific,1
51,2,Pacific,1
51,3,Pacific,1
52,0,Maori,1
52,1,Maori,1
52,2,Maori,1
52,3,Maori,1
52,0,MaoriPacific,1
52,1,MaoriPacific,1
52,2,MaoriPacific,1
52,3,MaoriPacific,1
52,0,Other,1
52,1,Other,1
52,2,Other,1
52,3,Other,1
52,0,Pacific,1
52,1,Pacific,1
52,2,Pacific,1
52,3,Pacific,1
53,0,Maori,1
53,1,Maori,1
53,2,Maori,1
53,3,Maori,1
53,0,MaoriPacific,1
53,1,MaoriPacific,1
53,2,MaoriPacific,1
53,3,MaoriPacific,1
53,0,Other,1
53,1,Other,1
53,2,Other,1
53,3,Other,1
53,0,Pacific,1
53,1,Pacific,1
53,2,Pacific,1
53,3,Pacific,1
54,0,Maori,1
54,1,Maori,1
54,2,Maori,1
54,3,Maori,1
54,0,MaoriPacific,1
54,1,MaoriPacific,1
54,2,MaoriPacific,1
54,3,MaoriPacific,1
54,0,Other,1
54,1,Other,1
54,2,Other,1
54,3,Other,1
54,0,Pacific,1
54,1,Pacific,1
54,2,Pacific,1
54,3,Pacific,1
55,0,Maori,1
55,1,Maori,1
55,2,Maori,1
55,3,Maori,1
55,0,MaoriPacific,1
55,1,MaoriPacific,1
55,2,MaoriPacific,1
55,3,MaoriPacific,1
55,0,Other,1
55,1,Other,1
55,2,Other,1
55,3,Other,1
55,0,Pacific,1
55,1,Pacific,1
55,2,Pacific,1
55,3,Pacific,1
56,0,Maori,1
56,1,Maori,1
56,2,Maori,1
56,3,Maori,1
56,0,MaoriPacific,1
56,1,MaoriPacific,1
56,2,MaoriPacific,1
56,3,MaoriPacific,1
56,0,Other,1
56,1,Other,1
56,2,Other,1
56,3,Other,1
56,0,Pacific,1
56,1,Pacific,1
56,2,Pacific,1
56,3,Pacific,1
57,0,Maori,1
57,1,Maori,1
57,2,Maori,1
57,3,Maori,1
57,0,MaoriPacific,1
57,1,MaoriPacific,1
57,2,MaoriPacific,1
57,3,MaoriPacific,1
57,0,Other,1
57,1,Other,1
57,2,Other,1
57,3,Other,1
57,0,Pacific,1
57,1,Pacific,1
57,2,Pacific,1
57,3,Pacific,1
58,0,Maori,1
58,1,Maori,1
58,2,Maori,1
58,3,Maori,1
58,0,MaoriPacific,1
58,1,MaoriPacific,1
58,2,MaoriPacific,1
58,3,MaoriPacific,1
58,0,Other,1
58,1,Other,1
58,2,Other,1
58,3,Other,1
58,0,Pacific,1
58,1,Pacific,1
58,2,Pacific,1
58,3,Pacific,1
59,0,Maori,1
59,1,Maori,1
59,2,Maori,1
59,3,Maori,1
59,0,MaoriPacific,1
59,1,MaoriPacific,1
59,2,MaoriPacific,1
59,3,MaoriPacific,1
59,0,Other,1
59,1,Other,1
59,2,Other,1
59,3,Other,1
59,0,Pacific,1
59,1,Pacific,1
59,2,Pacific,1
59,3,Pacific,1
60,0,Maori,1
60,1,Maori,1
60,2,Maori,1
60,3,Maori,1
60,0,MaoriPacific,1
60,1,MaoriPacific,1
60,2,MaoriPacific,1
60,3,MaoriPacific,1
60,0,Other,1
60,1,Other,1
60,2,Other,1
60,3,Other,1
60,0,Pacific,1
60,1,Pacific,1
60,2,Pacific,1
60,3,Pacific,1
62,0,Maori,1
62,1,Maori,1
62,2,Maori,1
62,3,Maori,1
62,0,MaoriPacific,1
62,1,MaoriPacific,1
62,2,MaoriPacific,1
62,3,MaoriPacific,1
62,0,Other,1
62,1,Other,1
62,2,Other,1
62,3,Other,1
62,0,Pacific,1
62,1,Pacific,1
62,2,Pacific,1
62,3,Pacific,1
63,0,Maori,1
63,1,Maori,1
63,2,Maori,1
63,3,Maori,1
63,0,MaoriPacific,1
63,1,MaoriPacific,1
63,2,MaoriPacific,1
63,3,MaoriPacific,1
63,0,Other,1
63,1,Other,1
63,2,Other,1
63,3,Other,1
63,0,Pacific,1
63,1,Pacific,1
63,2,Pacific,1
63,3,Pacific,1
64,0,Maori,1
64,1,Maori,1
64,2,Maori,1
64,3,Maori,1
64,0,MaoriPacific,1
64,1,MaoriPacific,1
64,2,MaoriPacific,1
64,3,MaoriPacific,1
64,0,Other,1
64,1,Other,1
64,2,Other,1
64,3,Other,1
64,0,Pacific,1
64,1,Pacific,1
64,2,Pacific,1
64,3,Pacific,1
65,0,Maori,1
65,1,Maori,1
65,2,Maori,1
65,3,Maori,1
65,0,MaoriPacific,1
65,1,MaoriPacific,1
65,2,MaoriPacific,1
65,3,MaoriPacific,1
65,0,Other,1
65,1,Other,1
65,2,Other,1
65,3,Other,1
65,0,Pacific,1
65,1,Pacific,1
65,2,Pacific,1
65,3,Pacific,1
66,0,Maori,1
66,1,Maori,1
66,2,Maori,1
66,3,Maori,1
66,0,MaoriPacific,1
66,1,MaoriPacific,1
66,2,MaoriPacific,1
66,3,MaoriPacific,1
66,0,Other,1
66,1,Other,1
66,2,Other,1
66,3,Other,1
66,0,Pacific,1
66,1,Pacific,1
66,2,Pacific,1
66,3,Pacific,1
67,0,Maori,1
67,1,Maori,1
67,2,Maori,1
67,3,Maori,1
67,0,MaoriPacific,1
67,1,MaoriPacific,1
67,2,MaoriPacific,1
67,3,MaoriPacific,1
67,0,Other,1
67,1,Other,1
67,2,Other,1
67,3,Other,1
67,0,Pacific,1
67,1,Pacific,1
67,2,Pacific,1
67,3,Pacific,1
68,0,Maori,1
68,1,Maori,1
68,2,Maori,1
68,3,Maori,1
68,0,MaoriPacific,1
68,1,MaoriPacific,1
68,2,MaoriPacific,1
68,3,MaoriPacific,1
68,0,Other,1
68,1,Other,1
68,2,Other,1
68,3,Other,1
68,0,Pacific,1
68,1,Pacific,1
68,2,Pacific,1
68,3,Pacific,1
69,0,Maori,1
69,1,Maori,1
69,2,Maori,1
69,3,Maori,1
69,0,MaoriPacific,1
69,1,MaoriPacific,1
69,2,MaoriPacific,1
69,3,MaoriPacific,1
69,0,Other,1
69,1,Other,1
69,2,Other,1
69,3,Other,1
69,0,Pacific,1
69,1,Pacific,1
69,2,Pacific,1
69,3,Pacific,1
70,0,Maori,1
70,1,Maori,1
70,2,Maori,1
70,3,Maori,1
70,0,MaoriPacific,1
70,1,MaoriPacific,1
70,2,MaoriPacific,1
70,3,MaoriPacific,1
70,0,Other,1
70,1,Other,1
70,2,Other,1
70,3,Other,1
70,0,Pacific,1
70,1,Pacific,1
70,2,Pacific,1
70,3,Pacific,1
71,0,Maori,1
71,1,Maori,1
71,2,Maori,1
71,3,Maori,1
71,0,MaoriPacific,1
71,1,MaoriPacific,1
71,2,MaoriPacific,1
71,3,MaoriPacific,1
71,0,Other,1
71,1,Other,1
71,2,Other,1
71,3,Other,1
71,0,Pacific,1
71,1,Pacific,1
71,2,Pacific,1
71,3,Pacific,1
72,0,Maori,1
72,1,Maori,1
72,2,Maori,1
72,3,Maori,1
72,0,MaoriPacific,1
72,1,MaoriPacific,1
72,2,MaoriPacific,1
72,3,MaoriPacific,1
72,0,Other,1
72,1,Other,1
72,2,Other,1
72,3,Other,1
72,0,Pacific,1
72,1,Pacific,1
72,2,Pacific,1
72,3,Pacific,1
73,0,Maori,1
73,1,Maori,1
73,2,Maori,1
73,3,Maori,1
73,0,MaoriPacific,1
73,1,MaoriPacific,1
73,2,MaoriPacific,1
73,3,MaoriPacific,1
73,0,Other,1
73,1,Other,1
73,2,Other,1
73,3,Other,1
73,0,Pacific,1
73,1,Pacific,1
73,2,Pacific,1
73,3,Pacific,1
74,0,Maori,1
74,1,Maori,1
74,2,Maori,1
74,3,Maori,1
74,0,MaoriPacific,1
74,1,MaoriPacific,1
74,2,MaoriPacific,1
74,3,MaoriPacific,1
74,0,Other,1
74,1,Other,1
74,2,Other,1
74,3,Other,1
74,0,Pacific,1
74,1,Pacific,1
74,2,Pacific,1
74,3,Pacific,1
75,0,Maori,1
75,1,Maori,1
75,2,Maori,1
75,3,Maori,1
75,0,MaoriPacific,1
75,1,MaoriPacific,1
75,2,MaoriPacific,1
75,3,MaoriPacific,1
75,0,Other,1
75,1,Other,1
75,2,Other,1
75,3,Other,1
75,0,Pacific,1
75,1,Pacific,1
75,2,Pacific,1
75,3,Pacific,1
76,0,Maori,1
76,1,Maori,1
76,2,Maori,1
76,3,Maori,1
76,0,MaoriPacific,1
76,1,MaoriPacific,1
76,2,MaoriPacific,1
76,3,MaoriPacific,1
76,0,Other,1
76,1,Other,1
76,2,Other,1
76,3,Other,1
76,0,Pacific,1
76,1,Pacific,1
76,2,Pacific,1
76,3,Pacific,1
