age,ethnicity,eta_c
0,Maori,0.0632089653927006
1,Maori,0.1312499345548139
2,Maori,0.2525020834583611
3,Maori,0.46260107543988854
0,MaoriPacific,0.0618093036991688
1,MaoriPacific,0.128660953282648
2,MaoriPacific,0.2332258244534625
3,MaoriPacific,0.45632724705612016
0,Other,0.06347440356715445
1,Other,0.13329440743723375
2,Other,0.25632181343258975
3,Other,0.5096074709285455
0,Pacific,0.06326427616090798
1,Pacific,0.1313908962762163
2,Pacific,0.24764086668309057
3,Pacific,0.46895409198944116
